id,name,model_id:id,group_id:id,perm_read,perm_write,perm_create,perm_unlink
access_partner_import_viewer,partner.partner_import vw,model_migration_partner_import,base_migrate.base_willow_viewer,1,0,0,0
access_partner_import_manager,partner.partner_import mng,model_migration_partner_import,base_migrate.base_willow_migrator,1,1,1,1
